{
    "type": "FeatureCollection",
    "query": [
        "italy"
    ],
    "features": [
        {
            "id": "country.18258463351519910",
            "type": "Feature",
            "place_type": [
                "country"
            ],
            "relevance": 1,
            "properties": {
                "wikidata": "Q38",
                "short_code": "it"
            },
            "text": "Italy",
            "place_name": "Italy",
            "bbox": [
                6.6266022477703,
                35.4119242023051,
                18.6197533608,
                47.0921469954938
            ],
            "center": [
                12.6463610364431,
                42.5041539170675
            ],
            "geometry": {
                "type": "Point",
                "coordinates": [
                    12.6463610364431,
                    42.5041539170675
                ]
            }
        },
        {
            "id": "place.6519899702519910",
            "type": "Feature",
            "place_type": [
                "place"
            ],
            "relevance": 1,
            "properties": {
                "wikidata": "Q977238"
            },
            "text": "Italy",
            "place_name": "Italy, Texas, United States",
            "bbox": [
                -97.0007168319096,
                32.0849149869116,
                -96.7028999846102,
                32.2764220130586
            ],
            "center": [
                -96.8847,
                32.184
            ],
            "geometry": {
                "type": "Point",
                "coordinates": [
                    -96.8847,
                    32.184
                ]
            },
            "context": [
                {
                    "id": "district.17053601515974270",
                    "wikidata": "Q110130",
                    "text": "Ellis County"
                },
                {
                    "id": "region.12968715825342410",
                    "wikidata": "Q1439",
                    "short_code": "US-TX",
                    "text": "Texas"
                },
                {
                    "id": "country.19678805456372290",
                    "wikidata": "Q30",
                    "short_code": "us",
                    "text": "United States"
                }
            ]
        },
        {
            "id": "poi.85899411600",
            "type": "Feature",
            "place_type": [
                "poi"
            ],
            "relevance": 1,
            "properties": {
                "foursquare": "4bfa38afbc86952171dd7a6b",
                "landmark": true,
                "address": "Большой просп. П. С., 58",
                "category": "italian restaurant, italian food, restaurant"
            },
            "text": "Italy",
            "place_name": "Italy, Большой просп. П. С., 58, Санкт-Петербу́рг, Saint Petersburg 197136, Russia",
            "center": [
                30.304016,
                59.961083
            ],
            "geometry": {
                "coordinates": [
                    30.304016,
                    59.961083
                ],
                "type": "Point"
            },
            "context": [
                {
                    "id": "postcode.7558062523820180",
                    "text": "197136"
                },
                {
                    "id": "locality.3191698898115200",
                    "text": "округ округ Петровский"
                },
                {
                    "id": "place.10100231204958930",
                    "wikidata": "Q656",
                    "text": "Санкт-Петербу́рг"
                },
                {
                    "id": "region.11183015516215360",
                    "wikidata": "Q656",
                    "short_code": "RU-SPE",
                    "text": "Saint Petersburg"
                },
                {
                    "id": "country.299986422520",
                    "wikidata": "Q159",
                    "short_code": "ru",
                    "text": "Russia"
                }
            ]
        },
        {
            "id": "poi.781684053702",
            "type": "Feature",
            "place_type": [
                "poi"
            ],
            "relevance": 1,
            "properties": {
                "foursquare": "4f9d1577e4b0b045855ff63e",
                "landmark": true,
                "address": "пл. Чернышевского, 11",
                "category": "italian restaurant, italian food, restaurant"
            },
            "text": "Italy",
            "place_name": "Italy, пл. Чернышевского, 11, Санкт-Петербу́рг, Saint Petersburg 196070, Russia",
            "center": [
                30.315739,
                59.869169
            ],
            "geometry": {
                "coordinates": [
                    30.315739,
                    59.869169
                ],
                "type": "Point"
            },
            "context": [
                {
                    "id": "postcode.9889597892398850",
                    "text": "196070"
                },
                {
                    "id": "locality.10113900172195700",
                    "text": "округ Пулковский меридиан"
                },
                {
                    "id": "place.10100231204958930",
                    "wikidata": "Q656",
                    "text": "Санкт-Петербу́рг"
                },
                {
                    "id": "region.11183015516215360",
                    "wikidata": "Q656",
                    "short_code": "RU-SPE",
                    "text": "Saint Petersburg"
                },
                {
                    "id": "country.299986422520",
                    "wikidata": "Q159",
                    "short_code": "ru",
                    "text": "Russia"
                }
            ]
        },
        {
            "id": "poi.618475390095",
            "type": "Feature",
            "place_type": [
                "poi"
            ],
            "relevance": 1,
            "properties": {
                "foursquare": "50d4bc0be4b0496aad67d636",
                "landmark": true,
                "address": "Serdivan Park",
                "category": "italian restaurant, italian food, restaurant"
            },
            "text": "İtalyan İşi",
            "place_name": "İtalyan İşi, Serdivan Park, Sakarya, Sakarya, Turkey",
            "center": [
                30.365219,
                40.779251
            ],
            "geometry": {
                "coordinates": [
                    30.365219,
                    40.779251
                ],
                "type": "Point"
            },
            "context": [
                {
                    "id": "place.10390158972903020",
                    "wikidata": "Q83069",
                    "text": "Sakarya"
                },
                {
                    "id": "region.11772493337972290",
                    "wikidata": "Q83069",
                    "short_code": "TR-54",
                    "text": "Sakarya"
                },
                {
                    "id": "country.12740899366176230",
                    "wikidata": "Q43",
                    "short_code": "tr",
                    "text": "Turkey"
                }
            ]
        }
    ],
    "attribution": "NOTICE: © 2021 Mapbox and its suppliers. All rights reserved. Use of this data is subject to the Mapbox Terms of Service (https://www.mapbox.com/about/maps/). This response and the information it contains may not be retained. POI(s) provided by Foursquare."
}